{
	"light": {
		"@font": "#444444",
		"@bg": "#E7E7E2",
		"@light": "#eeeeee",
		"@medium": "#dbdbd6",
		"@dark": "#c2c2bd",
		"@accent": "#ff6139",

		"@border": "#aaaaaa",
		"@link": "#556677",
		"@error": "#ff6358"
	},
	"dark": {
		"@font": "#e7dfd3",
		"@bg": "#111111",

		"@light": "#1f2d34",
		"@medium": "#1f272a",
		"@dark": "#181b1c",
		"@accent": "#ce5233",

		"@border": "#2d4653",
		"@link": "#ce5233",
		"@error": "#cc3538"
	}
}